[0523/121731.163:ERROR:process_reader_win.cc(123)] NtOpenThread: {Access Denied} A process has requested access to an object, but has not been granted those access rights. (0xc0000022)
[0523/121731.164:ERROR:exception_snapshot_win.cc(88)] thread ID 44196 not found in process
[0523/121731.164:WARNING:crash_report_exception_handler.cc(62)] ProcessSnapshotWin::Initialize failed
[0523/125656.756:ERROR:process_reader_win.cc(123)] NtOpenThread: {Access Denied} A process has requested access to an object, but has not been granted those access rights. (0xc0000022)
[0523/125656.757:ERROR:exception_snapshot_win.cc(88)] thread ID 41376 not found in process
[0523/125656.757:WARNING:crash_report_exception_handler.cc(62)] ProcessSnapshotWin::Initialize failed
[0523/130704.922:ERROR:process_reader_win.cc(123)] NtOpenThread: {Access Denied} A process has requested access to an object, but has not been granted those access rights. (0xc0000022)
[0523/130704.924:ERROR:exception_snapshot_win.cc(88)] thread ID 48492 not found in process
[0523/130704.924:WARNING:crash_report_exception_handler.cc(62)] ProcessSnapshotWin::Initialize failed
[0523/130959.220:ERROR:process_reader_win.cc(123)] NtOpenThread: {Access Denied} A process has requested access to an object, but has not been granted those access rights. (0xc0000022)
[0523/130959.222:ERROR:exception_snapshot_win.cc(88)] thread ID 48992 not found in process
[0523/130959.222:WARNING:crash_report_exception_handler.cc(62)] ProcessSnapshotWin::Initialize failed
[0523/131000.595:ERROR:process_reader_win.cc(123)] NtOpenThread: {Access Denied} A process has requested access to an object, but has not been granted those access rights. (0xc0000022)
[0523/131000.596:ERROR:exception_snapshot_win.cc(88)] thread ID 43640 not found in process
[0523/131000.596:WARNING:crash_report_exception_handler.cc(62)] ProcessSnapshotWin::Initialize failed
[0523/141509.804:ERROR:process_reader_win.cc(123)] NtOpenThread: {Access Denied} A process has requested access to an object, but has not been granted those access rights. (0xc0000022)
[0523/141509.848:ERROR:exception_snapshot_win.cc(88)] thread ID 32012 not found in process
[0523/141509.848:WARNING:crash_report_exception_handler.cc(62)] ProcessSnapshotWin::Initialize failed
[0523/141511.331:ERROR:process_reader_win.cc(123)] NtOpenThread: {Access Denied} A process has requested access to an object, but has not been granted those access rights. (0xc0000022)
[0523/141511.332:ERROR:exception_snapshot_win.cc(88)] thread ID 44104 not found in process
[0523/141511.332:WARNING:crash_report_exception_handler.cc(62)] ProcessSnapshotWin::Initialize failed
[0523/141512.353:ERROR:process_reader_win.cc(123)] NtOpenThread: {Access Denied} A process has requested access to an object, but has not been granted those access rights. (0xc0000022)
[0523/141512.354:ERROR:exception_snapshot_win.cc(88)] thread ID 55740 not found in process
[0523/141512.354:WARNING:crash_report_exception_handler.cc(62)] ProcessSnapshotWin::Initialize failed
[0523/142008.896:ERROR:process_reader_win.cc(123)] NtOpenThread: {Access Denied} A process has requested access to an object, but has not been granted those access rights. (0xc0000022)
[0523/142008.897:ERROR:exception_snapshot_win.cc(88)] thread ID 50752 not found in process
[0523/142008.897:WARNING:crash_report_exception_handler.cc(62)] ProcessSnapshotWin::Initialize failed
[0523/142110.900:ERROR:process_reader_win.cc(123)] NtOpenThread: {Access Denied} A process has requested access to an object, but has not been granted those access rights. (0xc0000022)
[0523/142110.901:ERROR:exception_snapshot_win.cc(88)] thread ID 52624 not found in process
[0523/142110.901:WARNING:crash_report_exception_handler.cc(62)] ProcessSnapshotWin::Initialize failed
[0523/142252.393:ERROR:process_reader_win.cc(123)] NtOpenThread: {Access Denied} A process has requested access to an object, but has not been granted those access rights. (0xc0000022)
[0523/142252.394:ERROR:exception_snapshot_win.cc(88)] thread ID 55928 not found in process
[0523/142252.394:WARNING:crash_report_exception_handler.cc(62)] ProcessSnapshotWin::Initialize failed
[0523/142953.206:ERROR:process_reader_win.cc(123)] NtOpenThread: {Access Denied} A process has requested access to an object, but has not been granted those access rights. (0xc0000022)
[0523/142953.207:ERROR:exception_snapshot_win.cc(88)] thread ID 51100 not found in process
[0523/142953.207:WARNING:crash_report_exception_handler.cc(62)] ProcessSnapshotWin::Initialize failed
[0523/142954.078:ERROR:process_reader_win.cc(123)] NtOpenThread: {Access Denied} A process has requested access to an object, but has not been granted those access rights. (0xc0000022)
[0523/142954.079:ERROR:exception_snapshot_win.cc(88)] thread ID 50660 not found in process
[0523/142954.079:WARNING:crash_report_exception_handler.cc(62)] ProcessSnapshotWin::Initialize failed
[0523/145902.802:ERROR:process_reader_win.cc(123)] NtOpenThread: {Access Denied} A process has requested access to an object, but has not been granted those access rights. (0xc0000022)
[0523/145902.803:ERROR:exception_snapshot_win.cc(88)] thread ID 54536 not found in process
[0523/145902.803:WARNING:crash_report_exception_handler.cc(62)] ProcessSnapshotWin::Initialize failed
[0523/155640.157:ERROR:process_reader_win.cc(123)] NtOpenThread: {Access Denied} A process has requested access to an object, but has not been granted those access rights. (0xc0000022)
[0523/155640.202:ERROR:exception_snapshot_win.cc(88)] thread ID 53556 not found in process
[0523/155640.202:WARNING:crash_report_exception_handler.cc(62)] ProcessSnapshotWin::Initialize failed
[0523/160722.523:ERROR:process_reader_win.cc(123)] NtOpenThread: {Access Denied} A process has requested access to an object, but has not been granted those access rights. (0xc0000022)
[0523/160722.524:ERROR:exception_snapshot_win.cc(88)] thread ID 48916 not found in process
[0523/160722.524:WARNING:crash_report_exception_handler.cc(62)] ProcessSnapshotWin::Initialize failed
[0523/160724.090:ERROR:process_reader_win.cc(123)] NtOpenThread: {Access Denied} A process has requested access to an object, but has not been granted those access rights. (0xc0000022)
[0523/160724.092:ERROR:exception_snapshot_win.cc(88)] thread ID 53604 not found in process
[0523/160724.092:WARNING:crash_report_exception_handler.cc(62)] ProcessSnapshotWin::Initialize failed
[0523/160725.438:ERROR:process_reader_win.cc(123)] NtOpenThread: {Access Denied} A process has requested access to an object, but has not been granted those access rights. (0xc0000022)
[0523/160725.440:ERROR:exception_snapshot_win.cc(88)] thread ID 48568 not found in process
[0523/160725.441:WARNING:crash_report_exception_handler.cc(62)] ProcessSnapshotWin::Initialize failed
[0523/161507.877:ERROR:process_reader_win.cc(123)] NtOpenThread: {Access Denied} A process has requested access to an object, but has not been granted those access rights. (0xc0000022)
[0523/161507.879:ERROR:exception_snapshot_win.cc(88)] thread ID 52136 not found in process
[0523/161507.879:WARNING:crash_report_exception_handler.cc(62)] ProcessSnapshotWin::Initialize failed
[0523/161531.623:ERROR:process_reader_win.cc(123)] NtOpenThread: {Access Denied} A process has requested access to an object, but has not been granted those access rights. (0xc0000022)
[0523/161531.625:ERROR:exception_snapshot_win.cc(88)] thread ID 45844 not found in process
[0523/161531.625:WARNING:crash_report_exception_handler.cc(62)] ProcessSnapshotWin::Initialize failed
[0523/161803.965:ERROR:process_reader_win.cc(123)] NtOpenThread: {Access Denied} A process has requested access to an object, but has not been granted those access rights. (0xc0000022)
[0523/161803.966:ERROR:exception_snapshot_win.cc(88)] thread ID 48528 not found in process
[0523/161803.966:WARNING:crash_report_exception_handler.cc(62)] ProcessSnapshotWin::Initialize failed
[0523/163210.391:ERROR:process_reader_win.cc(123)] NtOpenThread: {Access Denied} A process has requested access to an object, but has not been granted those access rights. (0xc0000022)
[0523/163210.392:ERROR:exception_snapshot_win.cc(88)] thread ID 52720 not found in process
[0523/163210.392:WARNING:crash_report_exception_handler.cc(62)] ProcessSnapshotWin::Initialize failed
[0523/163212.021:ERROR:process_reader_win.cc(123)] NtOpenThread: {Access Denied} A process has requested access to an object, but has not been granted those access rights. (0xc0000022)
[0523/163212.022:ERROR:exception_snapshot_win.cc(88)] thread ID 54896 not found in process
[0523/163212.022:WARNING:crash_report_exception_handler.cc(62)] ProcessSnapshotWin::Initialize failed
[0523/163213.434:ERROR:process_reader_win.cc(123)] NtOpenThread: {Access Denied} A process has requested access to an object, but has not been granted those access rights. (0xc0000022)
[0523/163213.436:ERROR:exception_snapshot_win.cc(88)] thread ID 50112 not found in process
[0523/163213.436:WARNING:crash_report_exception_handler.cc(62)] ProcessSnapshotWin::Initialize failed
[0523/163214.496:ERROR:process_reader_win.cc(123)] NtOpenThread: {Access Denied} A process has requested access to an object, but has not been granted those access rights. (0xc0000022)
[0523/163214.498:ERROR:exception_snapshot_win.cc(88)] thread ID 54416 not found in process
[0523/163214.498:WARNING:crash_report_exception_handler.cc(62)] ProcessSnapshotWin::Initialize failed
[0523/163834.758:ERROR:process_reader_win.cc(123)] NtOpenThread: {Access Denied} A process has requested access to an object, but has not been granted those access rights. (0xc0000022)
[0523/163834.760:ERROR:exception_snapshot_win.cc(88)] thread ID 36016 not found in process
[0523/163834.760:WARNING:crash_report_exception_handler.cc(62)] ProcessSnapshotWin::Initialize failed
[0523/164608.510:ERROR:process_reader_win.cc(123)] NtOpenThread: {Access Denied} A process has requested access to an object, but has not been granted those access rights. (0xc0000022)
[0523/164608.512:ERROR:exception_snapshot_win.cc(88)] thread ID 55784 not found in process
[0523/164608.512:WARNING:crash_report_exception_handler.cc(62)] ProcessSnapshotWin::Initialize failed
[0523/164609.974:ERROR:process_reader_win.cc(123)] NtOpenThread: {Access Denied} A process has requested access to an object, but has not been granted those access rights. (0xc0000022)
[0523/164609.975:ERROR:exception_snapshot_win.cc(88)] thread ID 49200 not found in process
[0523/164609.976:WARNING:crash_report_exception_handler.cc(62)] ProcessSnapshotWin::Initialize failed
[0523/164611.044:ERROR:process_reader_win.cc(123)] NtOpenThread: {Access Denied} A process has requested access to an object, but has not been granted those access rights. (0xc0000022)
[0523/164611.045:ERROR:exception_snapshot_win.cc(88)] thread ID 54920 not found in process
[0523/164611.045:WARNING:crash_report_exception_handler.cc(62)] ProcessSnapshotWin::Initialize failed
[0523/164612.479:ERROR:process_reader_win.cc(123)] NtOpenThread: {Access Denied} A process has requested access to an object, but has not been granted those access rights. (0xc0000022)
[0523/164612.480:ERROR:exception_snapshot_win.cc(88)] thread ID 47084 not found in process
[0523/164612.480:WARNING:crash_report_exception_handler.cc(62)] ProcessSnapshotWin::Initialize failed
[0523/164613.493:ERROR:process_reader_win.cc(123)] NtOpenThread: {Access Denied} A process has requested access to an object, but has not been granted those access rights. (0xc0000022)
[0523/164613.494:ERROR:exception_snapshot_win.cc(88)] thread ID 52900 not found in process
[0523/164613.494:WARNING:crash_report_exception_handler.cc(62)] ProcessSnapshotWin::Initialize failed
[0523/165258.375:ERROR:process_reader_win.cc(123)] NtOpenThread: {Access Denied} A process has requested access to an object, but has not been granted those access rights. (0xc0000022)
[0523/165258.376:ERROR:exception_snapshot_win.cc(88)] thread ID 42820 not found in process
[0523/165258.376:WARNING:crash_report_exception_handler.cc(62)] ProcessSnapshotWin::Initialize failed
[0523/165259.807:ERROR:process_reader_win.cc(123)] NtOpenThread: {Access Denied} A process has requested access to an object, but has not been granted those access rights. (0xc0000022)
[0523/165259.810:ERROR:exception_snapshot_win.cc(88)] thread ID 38188 not found in process
[0523/165259.810:WARNING:crash_report_exception_handler.cc(62)] ProcessSnapshotWin::Initialize failed
[0523/165902.280:ERROR:process_reader_win.cc(123)] NtOpenThread: {Access Denied} A process has requested access to an object, but has not been granted those access rights. (0xc0000022)
[0523/165902.282:ERROR:exception_snapshot_win.cc(88)] thread ID 54616 not found in process
[0523/165902.282:WARNING:crash_report_exception_handler.cc(62)] ProcessSnapshotWin::Initialize failed
[0523/170503.227:ERROR:process_reader_win.cc(123)] NtOpenThread: {Access Denied} A process has requested access to an object, but has not been granted those access rights. (0xc0000022)
[0523/170503.229:ERROR:exception_snapshot_win.cc(88)] thread ID 51864 not found in process
[0523/170503.229:WARNING:crash_report_exception_handler.cc(62)] ProcessSnapshotWin::Initialize failed
[0523/170504.582:ERROR:process_reader_win.cc(123)] NtOpenThread: {Access Denied} A process has requested access to an object, but has not been granted those access rights. (0xc0000022)
[0523/170504.584:ERROR:exception_snapshot_win.cc(88)] thread ID 53924 not found in process
[0523/170504.584:WARNING:crash_report_exception_handler.cc(62)] ProcessSnapshotWin::Initialize failed
[0523/170505.843:ERROR:process_reader_win.cc(123)] NtOpenThread: {Access Denied} A process has requested access to an object, but has not been granted those access rights. (0xc0000022)
[0523/170505.844:ERROR:exception_snapshot_win.cc(88)] thread ID 41904 not found in process
[0523/170505.844:WARNING:crash_report_exception_handler.cc(62)] ProcessSnapshotWin::Initialize failed
[0523/170506.847:ERROR:process_reader_win.cc(123)] NtOpenThread: {Access Denied} A process has requested access to an object, but has not been granted those access rights. (0xc0000022)
[0523/170506.848:ERROR:exception_snapshot_win.cc(88)] thread ID 36944 not found in process
[0523/170506.848:WARNING:crash_report_exception_handler.cc(62)] ProcessSnapshotWin::Initialize failed
[0523/170933.715:ERROR:process_reader_win.cc(123)] NtOpenThread: {Access Denied} A process has requested access to an object, but has not been granted those access rights. (0xc0000022)
[0523/170933.716:ERROR:exception_snapshot_win.cc(88)] thread ID 48964 not found in process
[0523/170933.717:WARNING:crash_report_exception_handler.cc(62)] ProcessSnapshotWin::Initialize failed
[0524/084415.106:ERROR:process_reader_win.cc(123)] NtOpenThread: {Access Denied} A process has requested access to an object, but has not been granted those access rights. (0xc0000022)
[0524/084415.129:ERROR:exception_snapshot_win.cc(88)] thread ID 50112 not found in process
[0524/084415.130:WARNING:crash_report_exception_handler.cc(62)] ProcessSnapshotWin::Initialize failed
[0524/084416.576:ERROR:process_reader_win.cc(123)] NtOpenThread: {Access Denied} A process has requested access to an object, but has not been granted those access rights. (0xc0000022)
[0524/084416.578:ERROR:exception_snapshot_win.cc(88)] thread ID 6716 not found in process
[0524/084416.578:WARNING:crash_report_exception_handler.cc(62)] ProcessSnapshotWin::Initialize failed
[0524/084417.640:ERROR:process_reader_win.cc(123)] NtOpenThread: {Access Denied} A process has requested access to an object, but has not been granted those access rights. (0xc0000022)
[0524/084417.642:ERROR:exception_snapshot_win.cc(88)] thread ID 55240 not found in process
[0524/084417.642:WARNING:crash_report_exception_handler.cc(62)] ProcessSnapshotWin::Initialize failed
[0524/102111.696:ERROR:process_reader_win.cc(123)] NtOpenThread: {Access Denied} A process has requested access to an object, but has not been granted those access rights. (0xc0000022)
[0524/102111.702:ERROR:exception_snapshot_win.cc(88)] thread ID 41508 not found in process
[0524/102111.702:WARNING:crash_report_exception_handler.cc(62)] ProcessSnapshotWin::Initialize failed
[0524/103735.624:ERROR:process_reader_win.cc(123)] NtOpenThread: {Access Denied} A process has requested access to an object, but has not been granted those access rights. (0xc0000022)
[0524/103735.626:ERROR:exception_snapshot_win.cc(88)] thread ID 50220 not found in process
[0524/103735.626:WARNING:crash_report_exception_handler.cc(62)] ProcessSnapshotWin::Initialize failed
[0524/105954.104:ERROR:process_reader_win.cc(123)] NtOpenThread: {Access Denied} A process has requested access to an object, but has not been granted those access rights. (0xc0000022)
[0524/105954.106:ERROR:exception_snapshot_win.cc(88)] thread ID 39688 not found in process
[0524/105954.106:WARNING:crash_report_exception_handler.cc(62)] ProcessSnapshotWin::Initialize failed
[0524/105957.230:ERROR:process_reader_win.cc(123)] NtOpenThread: {Access Denied} A process has requested access to an object, but has not been granted those access rights. (0xc0000022)
[0524/105957.231:ERROR:exception_snapshot_win.cc(88)] thread ID 49776 not found in process
[0524/105957.231:WARNING:crash_report_exception_handler.cc(62)] ProcessSnapshotWin::Initialize failed
[0524/105958.727:ERROR:process_reader_win.cc(123)] NtOpenThread: {Access Denied} A process has requested access to an object, but has not been granted those access rights. (0xc0000022)
[0524/105958.728:ERROR:exception_snapshot_win.cc(88)] thread ID 48880 not found in process
[0524/105958.728:WARNING:crash_report_exception_handler.cc(62)] ProcessSnapshotWin::Initialize failed
[0524/105959.931:ERROR:process_reader_win.cc(123)] NtOpenThread: {Access Denied} A process has requested access to an object, but has not been granted those access rights. (0xc0000022)
[0524/105959.932:ERROR:exception_snapshot_win.cc(88)] thread ID 56724 not found in process
[0524/105959.932:WARNING:crash_report_exception_handler.cc(62)] ProcessSnapshotWin::Initialize failed
[0524/110507.261:ERROR:process_reader_win.cc(123)] NtOpenThread: {Access Denied} A process has requested access to an object, but has not been granted those access rights. (0xc0000022)
[0524/110507.262:ERROR:exception_snapshot_win.cc(88)] thread ID 58176 not found in process
[0524/110507.262:WARNING:crash_report_exception_handler.cc(62)] ProcessSnapshotWin::Initialize failed
[0524/124132.943:ERROR:process_reader_win.cc(123)] NtOpenThread: {Access Denied} A process has requested access to an object, but has not been granted those access rights. (0xc0000022)
[0524/124132.951:ERROR:exception_snapshot_win.cc(88)] thread ID 56540 not found in process
[0524/124132.951:WARNING:crash_report_exception_handler.cc(62)] ProcessSnapshotWin::Initialize failed
[0524/124141.262:ERROR:process_reader_win.cc(123)] NtOpenThread: {Access Denied} A process has requested access to an object, but has not been granted those access rights. (0xc0000022)
[0524/124141.263:ERROR:exception_snapshot_win.cc(88)] thread ID 53760 not found in process
[0524/124141.263:WARNING:crash_report_exception_handler.cc(62)] ProcessSnapshotWin::Initialize failed
[0524/124602.516:ERROR:process_reader_win.cc(123)] NtOpenThread: {Access Denied} A process has requested access to an object, but has not been granted those access rights. (0xc0000022)
[0524/124602.518:ERROR:exception_snapshot_win.cc(88)] thread ID 46968 not found in process
[0524/124602.518:WARNING:crash_report_exception_handler.cc(62)] ProcessSnapshotWin::Initialize failed
[0524/132240.872:ERROR:process_reader_win.cc(123)] NtOpenThread: {Access Denied} A process has requested access to an object, but has not been granted those access rights. (0xc0000022)
[0524/132241.159:ERROR:exception_snapshot_win.cc(88)] thread ID 57492 not found in process
[0524/132241.159:WARNING:crash_report_exception_handler.cc(62)] ProcessSnapshotWin::Initialize failed
[0524/135452.419:ERROR:process_reader_win.cc(123)] NtOpenThread: {Access Denied} A process has requested access to an object, but has not been granted those access rights. (0xc0000022)
[0524/135452.459:ERROR:exception_snapshot_win.cc(88)] thread ID 63164 not found in process
[0524/135452.459:WARNING:crash_report_exception_handler.cc(62)] ProcessSnapshotWin::Initialize failed
[0524/140003.723:ERROR:process_reader_win.cc(123)] NtOpenThread: {Access Denied} A process has requested access to an object, but has not been granted those access rights. (0xc0000022)
[0524/140003.725:ERROR:exception_snapshot_win.cc(88)] thread ID 46404 not found in process
[0524/140003.725:WARNING:crash_report_exception_handler.cc(62)] ProcessSnapshotWin::Initialize failed
[0524/140419.091:ERROR:process_reader_win.cc(123)] NtOpenThread: {Access Denied} A process has requested access to an object, but has not been granted those access rights. (0xc0000022)
[0524/140419.092:ERROR:exception_snapshot_win.cc(88)] thread ID 65392 not found in process
[0524/140419.092:WARNING:crash_report_exception_handler.cc(62)] ProcessSnapshotWin::Initialize failed
[0524/140422.509:ERROR:process_reader_win.cc(123)] NtOpenThread: {Access Denied} A process has requested access to an object, but has not been granted those access rights. (0xc0000022)
[0524/140422.510:ERROR:exception_snapshot_win.cc(88)] thread ID 63876 not found in process
[0524/140422.510:WARNING:crash_report_exception_handler.cc(62)] ProcessSnapshotWin::Initialize failed
[0524/141321.646:ERROR:process_reader_win.cc(123)] NtOpenThread: {Access Denied} A process has requested access to an object, but has not been granted those access rights. (0xc0000022)
[0524/141321.647:ERROR:exception_snapshot_win.cc(88)] thread ID 63872 not found in process
[0524/141321.647:WARNING:crash_report_exception_handler.cc(62)] ProcessSnapshotWin::Initialize failed
[0524/143301.195:ERROR:process_reader_win.cc(123)] NtOpenThread: {Access Denied} A process has requested access to an object, but has not been granted those access rights. (0xc0000022)
[0524/143301.196:ERROR:exception_snapshot_win.cc(88)] thread ID 62012 not found in process
[0524/143301.196:WARNING:crash_report_exception_handler.cc(62)] ProcessSnapshotWin::Initialize failed
[0524/145250.322:ERROR:process_reader_win.cc(123)] NtOpenThread: {Access Denied} A process has requested access to an object, but has not been granted those access rights. (0xc0000022)
[0524/145250.323:ERROR:exception_snapshot_win.cc(88)] thread ID 65436 not found in process
[0524/145250.323:WARNING:crash_report_exception_handler.cc(62)] ProcessSnapshotWin::Initialize failed
[0524/152417.677:ERROR:process_reader_win.cc(123)] NtOpenThread: {Access Denied} A process has requested access to an object, but has not been granted those access rights. (0xc0000022)
[0524/152417.678:ERROR:exception_snapshot_win.cc(88)] thread ID 50404 not found in process
[0524/152417.678:WARNING:crash_report_exception_handler.cc(62)] ProcessSnapshotWin::Initialize failed
[0524/162503.176:ERROR:process_reader_win.cc(123)] NtOpenThread: {Access Denied} A process has requested access to an object, but has not been granted those access rights. (0xc0000022)
[0524/162503.177:ERROR:exception_snapshot_win.cc(88)] thread ID 60172 not found in process
[0524/162503.177:WARNING:crash_report_exception_handler.cc(62)] ProcessSnapshotWin::Initialize failed
[0524/163747.528:ERROR:process_reader_win.cc(123)] NtOpenThread: {Access Denied} A process has requested access to an object, but has not been granted those access rights. (0xc0000022)
[0524/163747.529:ERROR:exception_snapshot_win.cc(88)] thread ID 63196 not found in process
[0524/163747.529:WARNING:crash_report_exception_handler.cc(62)] ProcessSnapshotWin::Initialize failed
[0525/092448.912:ERROR:process_reader_win.cc(123)] NtOpenThread: {Access Denied} A process has requested access to an object, but has not been granted those access rights. (0xc0000022)
[0525/092448.913:ERROR:exception_snapshot_win.cc(88)] thread ID 45308 not found in process
[0525/092448.913:WARNING:crash_report_exception_handler.cc(62)] ProcessSnapshotWin::Initialize failed
[0525/100750.581:ERROR:process_reader_win.cc(123)] NtOpenThread: {Access Denied} A process has requested access to an object, but has not been granted those access rights. (0xc0000022)
[0525/100750.582:ERROR:exception_snapshot_win.cc(88)] thread ID 36484 not found in process
[0525/100750.582:WARNING:crash_report_exception_handler.cc(62)] ProcessSnapshotWin::Initialize failed
[0525/101219.365:ERROR:process_reader_win.cc(123)] NtOpenThread: {Access Denied} A process has requested access to an object, but has not been granted those access rights. (0xc0000022)
[0525/101219.366:ERROR:exception_snapshot_win.cc(88)] thread ID 62960 not found in process
[0525/101219.366:WARNING:crash_report_exception_handler.cc(62)] ProcessSnapshotWin::Initialize failed
<<<<<<< HEAD
[0530/113335.577:ERROR:process_reader_win.cc(123)] NtOpenThread: {Access Denied} A process has requested access to an object, but has not been granted those access rights. (0xc0000022)
[0530/113335.616:ERROR:exception_snapshot_win.cc(88)] thread ID 47528 not found in process
[0530/113335.616:WARNING:crash_report_exception_handler.cc(62)] ProcessSnapshotWin::Initialize failed
=======
[0529/140005.467:ERROR:process_reader_win.cc(123)] NtOpenThread: {Access Denied} A process has requested access to an object, but has not been granted those access rights. (0xc0000022)
[0529/140005.497:ERROR:exception_snapshot_win.cc(88)] thread ID 13008 not found in process
[0529/140005.497:WARNING:crash_report_exception_handler.cc(62)] ProcessSnapshotWin::Initialize failed
[0529/140005.923:ERROR:process_reader_win.cc(123)] NtOpenThread: {Access Denied} A process has requested access to an object, but has not been granted those access rights. (0xc0000022)
[0529/140005.924:ERROR:exception_snapshot_win.cc(88)] thread ID 14856 not found in process
[0529/140005.924:WARNING:crash_report_exception_handler.cc(62)] ProcessSnapshotWin::Initialize failed
[0529/142925.698:ERROR:process_reader_win.cc(123)] NtOpenThread: {Access Denied} A process has requested access to an object, but has not been granted those access rights. (0xc0000022)
[0529/142925.712:ERROR:exception_snapshot_win.cc(88)] thread ID 6140 not found in process
[0529/142925.712:WARNING:crash_report_exception_handler.cc(62)] ProcessSnapshotWin::Initialize failed
[0529/142925.924:ERROR:process_reader_win.cc(123)] NtOpenThread: {Access Denied} A process has requested access to an object, but has not been granted those access rights. (0xc0000022)
[0529/142925.925:ERROR:exception_snapshot_win.cc(88)] thread ID 12160 not found in process
[0529/142925.925:WARNING:crash_report_exception_handler.cc(62)] ProcessSnapshotWin::Initialize failed
[0529/142929.265:ERROR:process_reader_win.cc(123)] NtOpenThread: {Access Denied} A process has requested access to an object, but has not been granted those access rights. (0xc0000022)
[0529/142929.265:ERROR:exception_snapshot_win.cc(88)] thread ID 12568 not found in process
[0529/142929.265:WARNING:crash_report_exception_handler.cc(62)] ProcessSnapshotWin::Initialize failed
[0529/142929.452:ERROR:process_reader_win.cc(123)] NtOpenThread: {Access Denied} A process has requested access to an object, but has not been granted those access rights. (0xc0000022)
[0529/142929.453:ERROR:exception_snapshot_win.cc(88)] thread ID 13460 not found in process
[0529/142929.453:WARNING:crash_report_exception_handler.cc(62)] ProcessSnapshotWin::Initialize failed
[0529/164553.020:ERROR:process_reader_win.cc(123)] NtOpenThread: {Access Denied} A process has requested access to an object, but has not been granted those access rights. (0xc0000022)
[0529/164553.049:ERROR:exception_snapshot_win.cc(88)] thread ID 11160 not found in process
[0529/164553.049:WARNING:crash_report_exception_handler.cc(62)] ProcessSnapshotWin::Initialize failed
[0529/164954.789:ERROR:process_reader_win.cc(123)] NtOpenThread: {Access Denied} A process has requested access to an object, but has not been granted those access rights. (0xc0000022)
[0529/164954.790:ERROR:exception_snapshot_win.cc(88)] thread ID 11324 not found in process
[0529/164954.790:WARNING:crash_report_exception_handler.cc(62)] ProcessSnapshotWin::Initialize failed
[0529/164957.555:ERROR:process_reader_win.cc(123)] NtOpenThread: {Access Denied} A process has requested access to an object, but has not been granted those access rights. (0xc0000022)
[0529/164957.555:ERROR:exception_snapshot_win.cc(88)] thread ID 14400 not found in process
[0529/164957.555:WARNING:crash_report_exception_handler.cc(62)] ProcessSnapshotWin::Initialize failed
[0530/101529.982:ERROR:process_reader_win.cc(123)] NtOpenThread: {Access Denied} A process has requested access to an object, but has not been granted those access rights. (0xc0000022)
[0530/101529.983:ERROR:exception_snapshot_win.cc(88)] thread ID 15100 not found in process
[0530/101529.983:WARNING:crash_report_exception_handler.cc(62)] ProcessSnapshotWin::Initialize failed
[0530/101920.512:ERROR:process_reader_win.cc(123)] NtOpenThread: {Access Denied} A process has requested access to an object, but has not been granted those access rights. (0xc0000022)
[0530/101920.513:ERROR:exception_snapshot_win.cc(88)] thread ID 14620 not found in process
[0530/101920.513:WARNING:crash_report_exception_handler.cc(62)] ProcessSnapshotWin::Initialize failed
[0530/105518.765:ERROR:process_reader_win.cc(123)] NtOpenThread: {Access Denied} A process has requested access to an object, but has not been granted those access rights. (0xc0000022)
[0530/105518.766:ERROR:exception_snapshot_win.cc(88)] thread ID 15568 not found in process
[0530/105518.766:WARNING:crash_report_exception_handler.cc(62)] ProcessSnapshotWin::Initialize failed
[0530/105520.991:ERROR:process_reader_win.cc(123)] NtOpenThread: {Access Denied} A process has requested access to an object, but has not been granted those access rights. (0xc0000022)
[0530/105520.992:ERROR:exception_snapshot_win.cc(88)] thread ID 15720 not found in process
[0530/105520.992:WARNING:crash_report_exception_handler.cc(62)] ProcessSnapshotWin::Initialize failed
[0530/105523.401:ERROR:process_reader_win.cc(123)] NtOpenThread: {Access Denied} A process has requested access to an object, but has not been granted those access rights. (0xc0000022)
[0530/105523.402:ERROR:exception_snapshot_win.cc(88)] thread ID 12744 not found in process
[0530/105523.402:WARNING:crash_report_exception_handler.cc(62)] ProcessSnapshotWin::Initialize failed
[0530/111004.237:ERROR:process_reader_win.cc(123)] NtOpenThread: {Access Denied} A process has requested access to an object, but has not been granted those access rights. (0xc0000022)
[0530/111004.238:ERROR:exception_snapshot_win.cc(88)] thread ID 16492 not found in process
[0530/111004.238:WARNING:crash_report_exception_handler.cc(62)] ProcessSnapshotWin::Initialize failed
[0530/114809.514:ERROR:process_reader_win.cc(123)] NtOpenThread: {Access Denied} A process has requested access to an object, but has not been granted those access rights. (0xc0000022)
[0530/114809.515:ERROR:exception_snapshot_win.cc(88)] thread ID 16656 not found in process
[0530/114809.515:WARNING:crash_report_exception_handler.cc(62)] ProcessSnapshotWin::Initialize failed
[0530/115549.703:ERROR:process_reader_win.cc(123)] NtOpenThread: {Access Denied} A process has requested access to an object, but has not been granted those access rights. (0xc0000022)
[0530/115549.704:ERROR:exception_snapshot_win.cc(88)] thread ID 2084 not found in process
[0530/115549.704:WARNING:crash_report_exception_handler.cc(62)] ProcessSnapshotWin::Initialize failed
[0530/115925.393:ERROR:process_reader_win.cc(123)] NtOpenThread: {Access Denied} A process has requested access to an object, but has not been granted those access rights. (0xc0000022)
[0530/115925.394:ERROR:exception_snapshot_win.cc(88)] thread ID 9708 not found in process
[0530/115925.394:WARNING:crash_report_exception_handler.cc(62)] ProcessSnapshotWin::Initialize failed
[0530/120645.173:ERROR:process_reader_win.cc(123)] NtOpenThread: {Access Denied} A process has requested access to an object, but has not been granted those access rights. (0xc0000022)
[0530/120645.174:ERROR:exception_snapshot_win.cc(88)] thread ID 760 not found in process
[0530/120645.174:WARNING:crash_report_exception_handler.cc(62)] ProcessSnapshotWin::Initialize failed
[0530/120823.795:ERROR:process_reader_win.cc(123)] NtOpenThread: {Access Denied} A process has requested access to an object, but has not been granted those access rights. (0xc0000022)
[0530/120823.796:ERROR:exception_snapshot_win.cc(88)] thread ID 17440 not found in process
[0530/120823.796:WARNING:crash_report_exception_handler.cc(62)] ProcessSnapshotWin::Initialize failed
[0530/121809.722:ERROR:process_reader_win.cc(123)] NtOpenThread: {Access Denied} A process has requested access to an object, but has not been granted those access rights. (0xc0000022)
[0530/121809.723:ERROR:exception_snapshot_win.cc(88)] thread ID 4504 not found in process
[0530/121809.723:WARNING:crash_report_exception_handler.cc(62)] ProcessSnapshotWin::Initialize failed
[0530/124434.658:ERROR:process_reader_win.cc(123)] NtOpenThread: {Access Denied} A process has requested access to an object, but has not been granted those access rights. (0xc0000022)
[0530/124434.659:ERROR:exception_snapshot_win.cc(88)] thread ID 14016 not found in process
[0530/124434.659:WARNING:crash_report_exception_handler.cc(62)] ProcessSnapshotWin::Initialize failed
[0530/124438.304:ERROR:process_reader_win.cc(123)] NtOpenThread: {Access Denied} A process has requested access to an object, but has not been granted those access rights. (0xc0000022)
[0530/124438.305:ERROR:exception_snapshot_win.cc(88)] thread ID 16436 not found in process
[0530/124438.305:WARNING:crash_report_exception_handler.cc(62)] ProcessSnapshotWin::Initialize failed
[0530/124440.362:ERROR:process_reader_win.cc(123)] NtOpenThread: {Access Denied} A process has requested access to an object, but has not been granted those access rights. (0xc0000022)
[0530/124440.363:ERROR:exception_snapshot_win.cc(88)] thread ID 8920 not found in process
[0530/124440.363:WARNING:crash_report_exception_handler.cc(62)] ProcessSnapshotWin::Initialize failed
[0530/125247.746:ERROR:process_reader_win.cc(123)] NtOpenThread: {Access Denied} A process has requested access to an object, but has not been granted those access rights. (0xc0000022)
[0530/125247.747:ERROR:exception_snapshot_win.cc(88)] thread ID 15428 not found in process
[0530/125247.747:WARNING:crash_report_exception_handler.cc(62)] ProcessSnapshotWin::Initialize failed
[0530/125250.219:ERROR:process_reader_win.cc(123)] NtOpenThread: {Access Denied} A process has requested access to an object, but has not been granted those access rights. (0xc0000022)
[0530/125250.220:ERROR:exception_snapshot_win.cc(88)] thread ID 5248 not found in process
[0530/125250.220:WARNING:crash_report_exception_handler.cc(62)] ProcessSnapshotWin::Initialize failed
[0530/125552.963:ERROR:process_reader_win.cc(123)] NtOpenThread: {Access Denied} A process has requested access to an object, but has not been granted those access rights. (0xc0000022)
[0530/125552.964:ERROR:exception_snapshot_win.cc(88)] thread ID 17472 not found in process
[0530/125552.964:WARNING:crash_report_exception_handler.cc(62)] ProcessSnapshotWin::Initialize failed
[0530/130125.614:ERROR:process_reader_win.cc(123)] NtOpenThread: {Access Denied} A process has requested access to an object, but has not been granted those access rights. (0xc0000022)
[0530/130125.615:ERROR:exception_snapshot_win.cc(88)] thread ID 12628 not found in process
[0530/130125.615:WARNING:crash_report_exception_handler.cc(62)] ProcessSnapshotWin::Initialize failed
[0530/162519.119:ERROR:process_reader_win.cc(123)] NtOpenThread: {Access Denied} A process has requested access to an object, but has not been granted those access rights. (0xc0000022)
[0530/162519.120:ERROR:exception_snapshot_win.cc(88)] thread ID 6452 not found in process
[0530/162519.120:WARNING:crash_report_exception_handler.cc(62)] ProcessSnapshotWin::Initialize failed
<<<<<<< HEAD
[0531/115243.290:ERROR:process_reader_win.cc(123)] NtOpenThread: {Access Denied} A process has requested access to an object, but has not been granted those access rights. (0xc0000022)
[0531/115243.318:ERROR:exception_snapshot_win.cc(88)] thread ID 16752 not found in process
[0531/115243.318:WARNING:crash_report_exception_handler.cc(62)] ProcessSnapshotWin::Initialize failed
=======
>>>>>>> 797d5dde7c93ad91f4b57a5e834cc7331490320a
>>>>>>> 4f2981d4f94511d44dc73601148be3e51f329a4e
[0531/135519.219:ERROR:process_reader_win.cc(123)] NtOpenThread: {Access Denied} A process has requested access to an object, but has not been granted those access rights. (0xc0000022)
[0531/135519.220:ERROR:exception_snapshot_win.cc(88)] thread ID 15664 not found in process
[0531/135519.220:WARNING:crash_report_exception_handler.cc(62)] ProcessSnapshotWin::Initialize failed
[0611/104545.588:ERROR:process_reader_win.cc(123)] NtOpenThread: {Access Denied} A process has requested access to an object, but has not been granted those access rights. (0xc0000022)
[0611/104545.858:ERROR:exception_snapshot_win.cc(88)] thread ID 18588 not found in process
[0611/104547.958:ERROR:process_reader_win.cc(123)] NtOpenThread: {Access Denied} A process has requested access to an object, but has not been granted those access rights. (0xc0000022)
[0611/104547.959:ERROR:exception_snapshot_win.cc(88)] thread ID 2420 not found in process
[0611/104550.009:ERROR:process_reader_win.cc(123)] NtOpenThread: {Access Denied} A process has requested access to an object, but has not been granted those access rights. (0xc0000022)
[0611/104550.010:ERROR:exception_snapshot_win.cc(88)] thread ID 10788 not found in process
[0611/110504.556:ERROR:process_reader_win.cc(123)] NtOpenThread: {Access Denied} A process has requested access to an object, but has not been granted those access rights. (0xc0000022)
[0611/110504.558:ERROR:exception_snapshot_win.cc(88)] thread ID 19156 not found in process
[0611/110525.812:ERROR:process_reader_win.cc(123)] NtOpenThread: {Access Denied} A process has requested access to an object, but has not been granted those access rights. (0xc0000022)
[0611/110525.813:ERROR:exception_snapshot_win.cc(88)] thread ID 2224 not found in process
[0611/111719.794:ERROR:process_reader_win.cc(123)] NtOpenThread: {Access Denied} A process has requested access to an object, but has not been granted those access rights. (0xc0000022)
[0611/111719.795:ERROR:exception_snapshot_win.cc(88)] thread ID 17268 not found in process
[0611/112435.404:ERROR:process_reader_win.cc(123)] NtOpenThread: {Access Denied} A process has requested access to an object, but has not been granted those access rights. (0xc0000022)
[0611/112435.404:ERROR:exception_snapshot_win.cc(88)] thread ID 10720 not found in process
[0611/113646.984:ERROR:process_reader_win.cc(123)] NtOpenThread: {Access Denied} A process has requested access to an object, but has not been granted those access rights. (0xc0000022)
[0611/113646.985:ERROR:exception_snapshot_win.cc(88)] thread ID 22628 not found in process
[0611/113648.567:ERROR:process_reader_win.cc(123)] NtOpenThread: {Access Denied} A process has requested access to an object, but has not been granted those access rights. (0xc0000022)
[0611/113648.569:ERROR:exception_snapshot_win.cc(88)] thread ID 22688 not found in process
[0611/113650.199:ERROR:process_reader_win.cc(123)] NtOpenThread: {Access Denied} A process has requested access to an object, but has not been granted those access rights. (0xc0000022)
[0611/113650.200:ERROR:exception_snapshot_win.cc(88)] thread ID 22760 not found in process
[0611/113651.471:ERROR:process_reader_win.cc(123)] NtOpenThread: {Access Denied} A process has requested access to an object, but has not been granted those access rights. (0xc0000022)
[0611/113651.472:ERROR:exception_snapshot_win.cc(88)] thread ID 22784 not found in process
[0611/113652.561:ERROR:process_reader_win.cc(123)] NtOpenThread: {Access Denied} A process has requested access to an object, but has not been granted those access rights. (0xc0000022)
[0611/113652.562:ERROR:exception_snapshot_win.cc(88)] thread ID 22812 not found in process
[0611/113653.764:ERROR:process_reader_win.cc(123)] NtOpenThread: {Access Denied} A process has requested access to an object, but has not been granted those access rights. (0xc0000022)
[0611/113653.765:ERROR:exception_snapshot_win.cc(88)] thread ID 22848 not found in process
[0611/113654.689:ERROR:process_reader_win.cc(123)] NtOpenThread: {Access Denied} A process has requested access to an object, but has not been granted those access rights. (0xc0000022)
[0611/113654.690:ERROR:exception_snapshot_win.cc(88)] thread ID 22868 not found in process
[0611/113913.056:ERROR:process_reader_win.cc(123)] NtOpenThread: {Access Denied} A process has requested access to an object, but has not been granted those access rights. (0xc0000022)
[0611/113913.058:ERROR:exception_snapshot_win.cc(88)] thread ID 23124 not found in process
[0611/113914.350:ERROR:process_reader_win.cc(123)] NtOpenThread: {Access Denied} A process has requested access to an object, but has not been granted those access rights. (0xc0000022)
[0611/113914.351:ERROR:exception_snapshot_win.cc(88)] thread ID 23220 not found in process
[0611/114256.292:ERROR:process_reader_win.cc(123)] NtOpenThread: {Access Denied} A process has requested access to an object, but has not been granted those access rights. (0xc0000022)
[0611/114256.293:ERROR:exception_snapshot_win.cc(88)] thread ID 22896 not found in process
[0611/120258.430:ERROR:process_reader_win.cc(123)] NtOpenThread: {Access Denied} A process has requested access to an object, but has not been granted those access rights. (0xc0000022)
[0611/120258.431:ERROR:exception_snapshot_win.cc(88)] thread ID 22168 not found in process
[0611/120516.229:ERROR:process_reader_win.cc(123)] NtOpenThread: {Access Denied} A process has requested access to an object, but has not been granted those access rights. (0xc0000022)
[0611/120516.230:ERROR:exception_snapshot_win.cc(88)] thread ID 23460 not found in process
[0611/121631.871:ERROR:process_reader_win.cc(123)] NtOpenThread: {Access Denied} A process has requested access to an object, but has not been granted those access rights. (0xc0000022)
[0611/121631.872:ERROR:exception_snapshot_win.cc(88)] thread ID 18948 not found in process
[0611/144232.506:ERROR:process_reader_win.cc(123)] NtOpenThread: {Access Denied} A process has requested access to an object, but has not been granted those access rights. (0xc0000022)
[0611/144232.509:ERROR:exception_snapshot_win.cc(88)] thread ID 15616 not found in process
[0611/144235.524:ERROR:process_reader_win.cc(123)] NtOpenThread: {Access Denied} A process has requested access to an object, but has not been granted those access rights. (0xc0000022)
[0611/144235.525:ERROR:exception_snapshot_win.cc(88)] thread ID 20220 not found in process
[0611/145549.244:ERROR:process_reader_win.cc(123)] NtOpenThread: {Access Denied} A process has requested access to an object, but has not been granted those access rights. (0xc0000022)
[0611/145549.247:ERROR:exception_snapshot_win.cc(88)] thread ID 22144 not found in process
[0611/145552.014:ERROR:process_reader_win.cc(123)] NtOpenThread: {Access Denied} A process has requested access to an object, but has not been granted those access rights. (0xc0000022)
[0611/145552.015:ERROR:exception_snapshot_win.cc(88)] thread ID 10036 not found in process
[0611/152108.021:ERROR:process_reader_win.cc(123)] NtOpenThread: {Access Denied} A process has requested access to an object, but has not been granted those access rights. (0xc0000022)
[0611/152108.022:ERROR:exception_snapshot_win.cc(88)] thread ID 14788 not found in process
